{
  "project_info": {
    "project_number": "466195197210",
    "firebase_url": "https://time-fighter-31b6b.firebaseio.com",
    "project_id": "time-fighter-31b6b",
    "storage_bucket": "time-fighter-31b6b.appspot.com"
  },
  "client": [
    {
      "client_info": {
        "mobilesdk_app_id": "1:466195197210:android:34d548d477842674",
        "android_client_info": {
          "package_name": "com.example.davidbernal.time_fighter"
        }
      },
      "oauth_client": [
        {
          "client_id": "466195197210-12c3afkckjl5u39dub5pglu2rojgcae3.apps.googleusercontent.com",
          "client_type": 1,
          "android_info": {
            "package_name": "com.example.davidbernal.time_fighter",
            "certificate_hash": "06325f0e9b30cdab9cbf5bcfe1768908e5b55953"
          }
        },
        {
          "client_id": "466195197210-bbpe1m39a10cgeqp9odlidr60ehffngc.apps.googleusercontent.com",
          "client_type": 3
        }
      ],
      "api_key": [
        {
          "current_key": "AIzaSyCDBkWkro7mR-pGknV41X6sx0RkzvsHySY"
        }
      ],
      "services": {
        "analytics_service": {
          "status": 1
        },
        "appinvite_service": {
          "status": 2,
          "other_platform_oauth_client": [
            {
              "client_id": "466195197210-bbpe1m39a10cgeqp9odlidr60ehffngc.apps.googleusercontent.com",
              "client_type": 3
            }
          ]
        },
        "ads_service": {
          "status": 2
        }
      }
    }
  ],
  "configuration_version": "1"
}